#0:/usr/lib/ruby/2.1.0/rubygems/core_ext/kernel_require.rb:57:Kernel:-:         RUBYGEMS_ACTIVATION_MONITOR.enter
#0:/usr/lib/ruby/2.1.0/monitor.rb:183:MonitorMixin:>:   def mon_enter
#0:/usr/lib/ruby/2.1.0/monitor.rb:184:MonitorMixin:-:     if @mon_owner != Thread.current
#0:/usr/lib/ruby/2.1.0/monitor.rb:185:MonitorMixin:-:       @mon_mutex.lock
#0:/usr/lib/ruby/2.1.0/monitor.rb:186:MonitorMixin:-:       @mon_owner = Thread.current
#0:/usr/lib/ruby/2.1.0/monitor.rb:188:MonitorMixin:-:     @mon_count += 1
#0:/usr/lib/ruby/2.1.0/monitor.rb:189:MonitorMixin:<:   end
#0:/usr/lib/ruby/2.1.0/rubygems/core_ext/kernel_require.rb:143:Kernel:-:     RUBYGEMS_ACTIVATION_MONITOR.exit
#0:/usr/lib/ruby/2.1.0/monitor.rb:194:MonitorMixin:>:   def mon_exit
#0:/usr/lib/ruby/2.1.0/monitor.rb:195:MonitorMixin:-:     mon_check_owner
#0:/usr/lib/ruby/2.1.0/monitor.rb:244:MonitorMixin:>:   def mon_check_owner
#0:/usr/lib/ruby/2.1.0/monitor.rb:245:MonitorMixin:-:     if @mon_owner != Thread.current
#0:/usr/lib/ruby/2.1.0/monitor.rb:248:MonitorMixin:<:   end
#0:/usr/lib/ruby/2.1.0/monitor.rb:196:MonitorMixin:-:     @mon_count -=1
#0:/usr/lib/ruby/2.1.0/monitor.rb:197:MonitorMixin:-:     if @mon_count == 0
#0:/usr/lib/ruby/2.1.0/monitor.rb:198:MonitorMixin:-:       @mon_owner = nil
#0:/usr/lib/ruby/2.1.0/monitor.rb:198:MonitorMixin:-:       @mon_owner = nil
#0:/usr/lib/ruby/2.1.0/monitor.rb:199:MonitorMixin:-:       @mon_mutex.unlock
#0:/usr/lib/ruby/2.1.0/monitor.rb:201:MonitorMixin:<:   end
#0:/usr/lib/ruby/2.1.0/rubygems/core_ext/kernel_require.rb:55:Kernel:<:         return gem_original_require(path)
#0:mandelbrot.ruby:11::-: module MiniParallel
#0:mandelbrot.ruby:11::C: module MiniParallel
#0:mandelbrot.ruby:12::-:     class Worker
#0:mandelbrot.ruby:12::C:     class Worker
#0:mandelbrot.ruby:13::-:         def initialize(read, write)
#0:mandelbrot.ruby:17::-:         def close_pipes
#0:mandelbrot.ruby:22::-:         def work(index)
#0:mandelbrot.ruby:26::E:     end
#0:mandelbrot.ruby:28::-:     def self.map(array, &block)
#0:mandelbrot.ruby:36::-:     def self.core_count
#0:mandelbrot.ruby:40::-:     private
#0:mandelbrot.ruby:42::-:     def self.work_in_processes(array, count, &block)
#0:mandelbrot.ruby:65::-:     def self.create_workers(array, count, &block)
#0:mandelbrot.ruby:73::-:     def self.create_worker(array, started_workers, &block)
#0:mandelbrot.ruby:95::-:     def self.process_incoming_jobs(read, write, array, &block)
#0:mandelbrot.ruby:101::E: end
#0:mandelbrot.ruby:103::-: Size = ARGV.shift.to_i
#0:mandelbrot.ruby:105::-: puts "P4\n#{Size} #{Size}"
P4
0 0
#0:mandelbrot.ruby:107::-: def row y
#0:mandelbrot.ruby:156::-: if MiniParallel.core_count > 1
#0:mandelbrot.ruby:36:MiniParallel:>:     def self.core_count
#0:mandelbrot.ruby:37:MiniParallel:-:         @@core_count ||= IO.read("/proc/cpuinfo").scan(/^processor/).size
#0:mandelbrot.ruby:38:MiniParallel:<:     end
#0:mandelbrot.ruby:157::-:     if RUBY_PLATFORM == 'java'
#0:mandelbrot.ruby:168::-:         print MiniParallel.map((0...Size).to_a){|y|row y}.join
#0:mandelbrot.ruby:168::-:         print MiniParallel.map((0...Size).to_a){|y|row y}.join
#0:mandelbrot.ruby:28:MiniParallel:>:     def self.map(array, &block)
#0:mandelbrot.ruby:29:MiniParallel:-:         work_in_processes(
#0:mandelbrot.ruby:36:MiniParallel:>:     def self.core_count
#0:mandelbrot.ruby:37:MiniParallel:-:         @@core_count ||= IO.read("/proc/cpuinfo").scan(/^processor/).size
#0:mandelbrot.ruby:38:MiniParallel:<:     end
#0:mandelbrot.ruby:42:MiniParallel:>:     def self.work_in_processes(array, count, &block)
#0:mandelbrot.ruby:43:MiniParallel:-:         index = -1
#0:mandelbrot.ruby:44:MiniParallel:-:         results, threads = [], []
#0:mandelbrot.ruby:46:MiniParallel:-:         workers = create_workers(array, count, &block)
#0:mandelbrot.ruby:65:MiniParallel:>:     def self.create_workers(array, count, &block)
#0:mandelbrot.ruby:66:MiniParallel:-:         workers = []
#0:mandelbrot.ruby:67:MiniParallel:-:         count.times do
#0:mandelbrot.ruby:70:MiniParallel:-:         workers
#0:mandelbrot.ruby:71:MiniParallel:<:     end
#0:mandelbrot.ruby:48:MiniParallel:-:         workers.each do |worker|
#0:mandelbrot.ruby:59:MiniParallel:-:         threads.each(&:join)
#0:mandelbrot.ruby:60:MiniParallel:-:         Process.waitall
#0:mandelbrot.ruby:62:MiniParallel:-:         results
#0:mandelbrot.ruby:63:MiniParallel:<:     end
#0:mandelbrot.ruby:34:MiniParallel:<:     end
